<svg width="242" height="220" viewBox="0 0 242 220" fill="none" xmlns="http://www.w3.org/2000/svg">
<g clip-path="url(#clip0)">
<path d="M238.213 220H0V219.314H238.337L238.213 220Z" fill="#3F3D56"/>
<path d="M176.91 93.0307H92.01C91.5931 93.0302 91.1935 92.8644 90.8988 92.5698C90.604 92.2752 90.4382 91.8757 90.4377 91.4591V52.8055C90.4382 52.3889 90.604 51.9894 90.8988 51.6948C91.1935 51.4002 91.5931 51.2344 92.01 51.2339H176.91C177.327 51.2344 177.726 51.4002 178.021 51.6948C178.316 51.9894 178.482 52.3889 178.482 52.8055V91.4591C178.482 91.8757 178.316 92.2752 178.021 92.5698C177.726 92.8644 177.327 93.0302 176.91 93.0307ZM92.01 51.8626C91.7599 51.8629 91.5201 51.9623 91.3432 52.1391C91.1664 52.3159 91.0669 52.5555 91.0666 52.8055V91.4591C91.0669 91.7091 91.1664 91.9487 91.3432 92.1255C91.5201 92.3023 91.7599 92.4017 92.01 92.402H176.91C177.16 92.4017 177.4 92.3023 177.577 92.1255C177.754 91.9487 177.853 91.7091 177.853 91.4591V52.8055C177.853 52.5555 177.754 52.3159 177.577 52.1391C177.4 51.9623 177.16 51.8629 176.91 51.8626H92.01Z" fill="#3F3D56"/>
<path d="M103.015 69.932C106.662 69.932 109.619 66.9768 109.619 63.3313C109.619 59.6858 106.662 56.7306 103.015 56.7306C99.3686 56.7306 96.4122 59.6858 96.4122 63.3313C96.4122 66.9768 99.3686 69.932 103.015 69.932Z" fill="#4180E2"/>
<path d="M118.266 58.9308C117.974 58.9308 117.694 59.0467 117.488 59.253C117.281 59.4594 117.166 59.7392 117.166 60.0309C117.166 60.3227 117.281 60.6025 117.488 60.8089C117.694 61.0152 117.974 61.1311 118.266 61.1311H170.149C170.441 61.1311 170.721 61.0152 170.928 60.8089C171.134 60.6025 171.25 60.3227 171.25 60.0309C171.25 59.7392 171.134 59.4594 170.928 59.253C170.721 59.0467 170.441 58.9308 170.149 58.9308H118.266Z" fill="black"/>
<path d="M118.266 65.5315C117.974 65.5315 117.694 65.6474 117.488 65.8537C117.281 66.0601 117.166 66.3399 117.166 66.6316C117.166 66.9234 117.281 67.2032 117.488 67.4096C117.694 67.6159 117.974 67.7318 118.266 67.7318H140.592C140.883 67.7318 141.163 67.6159 141.37 67.4096C141.576 67.2032 141.692 66.9234 141.692 66.6316C141.692 66.3399 141.576 66.0601 141.37 65.8537C141.163 65.6474 140.883 65.5315 140.592 65.5315H118.266Z" fill="black"/>
<path d="M97.9506 76.0841C97.1134 76.0841 96.4322 76.5777 96.4322 77.1842C96.4322 77.7908 97.1134 78.2843 97.9506 78.2843H169.534C170.371 78.2843 171.052 77.7908 171.052 77.1842C171.052 76.5777 170.371 76.0841 169.534 76.0841H97.9506Z" fill="black"/>
<path d="M97.9506 82.6848C97.1134 82.6848 96.4322 83.1784 96.4322 83.7849C96.4322 84.3914 97.1134 84.885 97.9506 84.885H169.534C170.371 84.885 171.052 84.3914 171.052 83.7849C171.052 83.1784 170.371 82.6848 169.534 82.6848H97.9506Z" fill="black"/>
<path d="M240.428 41.7967H155.528C155.111 41.7962 154.711 41.6305 154.416 41.3358C154.122 41.0412 153.956 40.6418 153.955 40.2251V1.57158C153.956 1.15492 154.122 0.755459 154.416 0.460834C154.711 0.16621 155.111 0.000473874 155.528 -1.52588e-05H240.428C240.845 0.000474704 241.244 0.16621 241.539 0.460834C241.834 0.755459 241.999 1.15492 242 1.57158V40.2251C241.999 40.6418 241.834 41.0412 241.539 41.3358C241.244 41.6305 240.845 41.7962 240.428 41.7967ZM155.528 0.628622C155.278 0.628895 155.038 0.728329 154.861 0.905109C154.684 1.08189 154.585 1.32157 154.584 1.57158V40.2251C154.585 40.4751 154.684 40.7148 154.861 40.8916C155.038 41.0683 155.278 41.1678 155.528 41.1681H240.428C240.678 41.1678 240.918 41.0683 241.095 40.8916C241.271 40.7148 241.371 40.4751 241.371 40.2251V1.57158C241.371 1.32157 241.271 1.08189 241.095 0.905109C240.918 0.728329 240.678 0.628895 240.428 0.628622H155.528Z" fill="#3F3D56"/>
<path d="M166.533 18.698C170.18 18.698 173.137 15.7428 173.137 12.0974C173.137 8.45189 170.18 5.49666 166.533 5.49666C162.886 5.49666 159.93 8.45189 159.93 12.0974C159.93 15.7428 162.886 18.698 166.533 18.698Z" fill="#4180E2"/>
<path d="M181.784 7.69688C181.492 7.69688 181.212 7.81279 181.006 8.0191C180.799 8.22541 180.683 8.50523 180.683 8.797C180.683 9.08877 180.799 9.36859 181.006 9.5749C181.212 9.78121 181.492 9.89712 181.784 9.89712H233.667C233.959 9.89712 234.239 9.78121 234.445 9.5749C234.652 9.36859 234.768 9.08877 234.768 8.797C234.768 8.50523 234.652 8.22541 234.445 8.0191C234.239 7.81279 233.959 7.69688 233.667 7.69688H181.784Z" fill="black"/>
<path d="M181.784 14.2976C181.492 14.2976 181.212 14.4135 181.006 14.6198C180.799 14.8261 180.683 15.1059 180.683 15.3977C180.683 15.6895 180.799 15.9693 181.006 16.1756C181.212 16.3819 181.492 16.4978 181.784 16.4978H204.109C204.401 16.4978 204.681 16.3819 204.888 16.1756C205.094 15.9693 205.21 15.6895 205.21 15.3977C205.21 15.1059 205.094 14.8261 204.888 14.6198C204.681 14.4135 204.401 14.2976 204.109 14.2976H181.784Z" fill="black"/>
<path d="M161.468 24.8502C160.631 24.8502 159.95 25.3438 159.95 25.9503C159.95 26.5568 160.631 27.0504 161.468 27.0504H233.051C233.888 27.0504 234.57 26.5568 234.57 25.9503C234.57 25.3438 233.888 24.8502 233.051 24.8502H161.468Z" fill="black"/>
<path d="M161.468 31.4509C160.631 31.4509 159.95 31.9444 159.95 32.551C159.95 33.1575 160.631 33.6511 161.468 33.6511H233.051C233.888 33.6511 234.57 33.1575 234.57 32.551C234.57 31.9444 233.888 31.4509 233.051 31.4509H161.468Z" fill="black"/>
<path d="M240.428 144.265H155.528C155.111 144.264 154.711 144.098 154.416 143.804C154.122 143.509 153.956 143.11 153.955 142.693V104.039C153.956 103.623 154.122 103.223 154.416 102.929C154.711 102.634 155.111 102.468 155.528 102.468H240.428C240.845 102.468 241.244 102.634 241.539 102.929C241.834 103.223 241.999 103.623 242 104.039V142.693C241.999 143.11 241.834 143.509 241.539 143.804C241.244 144.098 240.845 144.264 240.428 144.265ZM155.528 103.097C155.278 103.097 155.038 103.196 154.861 103.373C154.684 103.55 154.585 103.789 154.584 104.039V142.693C154.585 142.943 154.684 143.183 154.861 143.359C155.038 143.536 155.278 143.636 155.528 143.636H240.428C240.678 143.636 240.918 143.536 241.095 143.359C241.271 143.183 241.371 142.943 241.371 142.693V104.039C241.371 103.789 241.271 103.55 241.095 103.373C240.918 103.196 240.678 103.097 240.428 103.097H155.528Z" fill="#3F3D56"/>
<path d="M166.533 121.166C170.18 121.166 173.137 118.211 173.137 114.565C173.137 110.92 170.18 107.965 166.533 107.965C162.886 107.965 159.93 110.92 159.93 114.565C159.93 118.211 162.886 121.166 166.533 121.166Z" fill="#4180E2"/>
<path d="M181.784 110.165C181.492 110.165 181.212 110.281 181.006 110.487C180.799 110.693 180.683 110.973 180.683 111.265C180.683 111.557 180.799 111.836 181.006 112.043C181.212 112.249 181.492 112.365 181.784 112.365H233.667C233.959 112.365 234.239 112.249 234.445 112.043C234.652 111.836 234.768 111.557 234.768 111.265C234.768 110.973 234.652 110.693 234.445 110.487C234.239 110.281 233.959 110.165 233.667 110.165H181.784Z" fill="black"/>
<path d="M181.784 116.765C181.492 116.765 181.212 116.881 181.006 117.088C180.799 117.294 180.683 117.574 180.683 117.866C180.683 118.157 180.799 118.437 181.006 118.643C181.212 118.85 181.492 118.966 181.784 118.966H204.109C204.401 118.966 204.681 118.85 204.888 118.643C205.094 118.437 205.21 118.157 205.21 117.866C205.21 117.574 205.094 117.294 204.888 117.088C204.681 116.881 204.401 116.765 204.109 116.765H181.784Z" fill="black"/>
<path d="M161.468 127.318C160.631 127.318 159.95 127.812 159.95 128.418C159.95 129.025 160.631 129.518 161.468 129.518H233.051C233.888 129.518 234.57 129.025 234.57 128.418C234.57 127.812 233.888 127.318 233.051 127.318H161.468Z" fill="black"/>
<path d="M161.468 133.919C160.631 133.919 159.95 134.412 159.95 135.019C159.95 135.625 160.631 136.119 161.468 136.119H233.051C233.888 136.119 234.57 135.625 234.57 135.019C234.57 134.412 233.888 133.919 233.051 133.919H161.468Z" fill="black"/>
<path d="M36.5619 126.47L33.6586 130.841C33.4161 131.274 33.2621 131.751 33.2055 132.243C33.1489 132.736 33.1909 133.235 33.3291 133.712C33.4673 134.188 33.6989 134.633 34.0104 135.019C34.3219 135.405 34.7071 135.725 35.1436 135.961C35.6873 136.255 36.2955 136.41 36.9137 136.412C37.5319 136.414 38.1409 136.263 38.6864 135.972C39.2319 135.681 39.6968 135.26 40.0397 134.745C40.3826 134.231 40.5928 133.64 40.6514 133.025L40.175 128.973L42.411 102.702L46.225 85.4217L38.3062 83.1745L34.6203 102.606L36.5619 126.47Z" fill="#9F616A"/>
<path d="M77.5104 209.375L69.8364 209.709L52.6089 150.705L33.7785 210.165L26.4613 210.042L38.2869 140.329C34.8076 130.799 37.0657 122.094 42.4576 113.839L43.2684 108.689L64.1643 108.318L66.1279 127.854L77.5104 209.375Z" fill="#2F2E41"/>
<path d="M72.1767 219.868C73.2577 220.361 74.2967 216.248 75.075 217.262C78.0852 221.183 83.9465 219.829 83.7439 219.205C83.9493 219.139 84.1392 219.032 84.302 218.891C84.4649 218.749 84.5973 218.576 84.6912 218.382C84.7852 218.188 84.8387 217.977 84.8486 217.761C84.8585 217.546 84.8246 217.331 84.7488 217.129C84.6581 216.887 84.5101 216.671 84.3174 216.499C84.1247 216.327 83.8932 216.205 83.6427 216.142L80.9302 215.464L76.6713 207.977L72.0299 207.39L71.9126 207.582C71.0153 209.027 70.4368 210.648 70.2157 212.334C69.9945 214.021 70.1358 215.736 70.6302 217.364C71.0162 218.6 71.5416 219.578 72.1767 219.868Z" fill="#2F2E41"/>
<path d="M27.9563 219.868C29.0373 220.361 30.0763 216.248 30.8546 217.262C33.8648 221.183 39.7261 219.829 39.5235 219.205C39.7289 219.139 39.9188 219.032 40.0816 218.891C40.2445 218.749 40.3769 218.576 40.4708 218.382C40.5648 218.188 40.6183 217.977 40.6282 217.761C40.6381 217.546 40.6042 217.331 40.5284 217.129C40.4377 216.887 40.2897 216.671 40.097 216.499C39.9043 216.327 39.6728 216.205 39.4223 216.142L36.7098 215.464L32.4509 207.977L27.8095 207.39L27.6922 207.582C26.7949 209.027 26.2164 210.648 25.9953 212.334C25.7741 214.021 25.9154 215.736 26.4098 217.364C26.7958 218.6 27.3212 219.578 27.9563 219.868Z" fill="#2F2E41"/>
<path d="M32.7984 98.3228L38.8357 77.7222C39.1237 76.2514 39.9844 74.9551 41.2285 74.1186C42.4727 73.2821 43.9983 72.9739 45.4697 73.2618C46.1983 73.4043 46.8917 73.6889 47.5103 74.0993C48.1288 74.5097 48.6604 75.0379 49.0748 75.6537C49.4892 76.2694 49.7781 76.9608 49.9252 77.6882C50.0723 78.4156 50.0746 79.1649 49.932 79.8932L44.9961 98.7063C41.4199 94.9421 37.3106 95.1366 32.7984 98.3228Z" fill="#EF564C"/>
<path d="M86.1647 79.141L74.7309 81.6622L75.2225 72.5712H84.5629L90.5819 54.3367L90.503 49.6179C90.3785 49.1824 90.352 48.7249 90.4253 48.278C90.4987 47.8311 90.67 47.406 90.9271 47.0331C91.1843 46.6602 91.5207 46.3489 91.9124 46.1214C92.3041 45.8938 92.7414 45.7558 93.1927 45.7171C93.7113 45.6727 94.2327 45.7608 94.7078 45.9731C95.183 46.1854 95.5963 46.515 95.9091 46.9308C96.2218 47.3467 96.4236 47.8352 96.4956 48.3505C96.5675 48.8658 96.5072 49.3909 96.3204 49.8764L94.2633 55.4689L91.4454 72.5712C91.4454 74.1037 90.9219 75.5903 89.9617 76.785C89.0014 77.9797 87.6619 78.8109 86.1647 79.141Z" fill="#9F616A"/>
<path d="M54.944 66.3058C60.3741 66.3058 64.776 61.9056 64.776 56.4777C64.776 51.0497 60.3741 46.6496 54.944 46.6496C49.5139 46.6496 45.1119 51.0497 45.1119 56.4777C45.1119 61.9056 49.5139 66.3058 54.944 66.3058Z" fill="#9F616A"/>
<path d="M56.7875 77.2395L42.2852 77.4852C44.6012 70.2258 46.192 63.4383 45.9722 57.829H57.0333C56.2984 64.2745 56.2161 70.7776 56.7875 77.2395Z" fill="#9F616A"/>
<path d="M66.2508 110.041L42.4767 113.655C38.721 102.76 38.6105 90.1865 40.6144 80.8815C40.3679 78.6635 40.6097 76.4185 41.3229 74.3038C42.0362 72.1891 43.2036 70.256 44.7432 68.6399L56.2959 69.8685C57.6273 70.1642 58.8509 70.8224 59.8314 71.7701C60.8118 72.7179 61.5109 73.9183 61.8512 75.2385C66.3085 81.4155 69.574 87.2602 65.9626 91.1883L66.2508 110.041Z" fill="#EF564C"/>
<path d="M80.6302 83.6278L59.2455 81.6622C57.7461 81.6622 56.3081 81.0668 55.2479 80.007C54.1877 78.9472 53.5921 77.5098 53.5921 76.011C53.5921 74.5122 54.1877 73.0749 55.2479 72.0151C56.3081 70.9553 57.7461 70.3599 59.2455 70.3599L78.6638 71.5884C75.6551 75.8196 76.6353 79.8134 80.6302 83.6278Z" fill="#EF564C"/>
<path d="M41.5477 74.887L34.2843 74.7004C35.4437 64.5504 36.0475 53.112 41.9715 47.2323C42.7253 46.4842 43.4019 45.7094 44.0772 44.9333C45.422 43.3878 48.2719 42.5006 51.1856 42.8374L52.6133 43.0024C57.3003 43.5441 67.1314 46.9032 66.8466 49.8376C66.7016 51.3317 66.6038 54.0199 63.0464 54.0537C60.1733 57.9071 55.0358 60.0467 57.1809 63.7072C61.4727 67.534 55.8882 70.568 51.3847 72.854C48.6237 74.2556 45.1213 74.9788 41.5477 74.887Z" fill="#2F2E41"/>
</g>
<defs>
<clipPath id="clip0">
<rect width="242" height="220" fill="white"/>
</clipPath>
</defs>
</svg>
